[
  {
    "tile": {
      "plane": 0,
      "x": 2922,
      "y": 3575
    },
    "comment": "Gaius",
    "npcId": 586
  },
  {
    "tile": {
      "plane": 0,
      "x": 2911,
      "y": 3534
    },
    "comment": "Commander Denulth",
    "npcId": 1060
  },
  {
    "tile": {
      "plane": 0,
      "x": 2897,
      "y": 3569
    },
    "comment": "Eadburg",
    "npcId": 1072
  },
  {
    "tile": {
      "plane": 1,
      "x": 2893,
      "y": 3565
    },
    "comment": "Eohric",
    "npcId": 1080
  },
  {
    "tile": {
      "plane": 0,
      "x": 2897,
      "y": 3523
    },
    "comment": "Guard",
    "npcId": 1076
  },
  {
    "tile": {
      "plane": 0,
      "x": 2897,
      "y": 3554
    },
    "comment": "Guard",
    "npcId": 1076
  },
  {
    "tile": {
      "plane": 0,
      "x": 2897,
      "y": 3565
    },
    "comment": "Guard",
    "npcId": 1076
  },
  {
    "tile": {
      "plane": 0,
      "x": 2899,
      "y": 3555
    },
    "comment": "Guard",
    "npcId": 1077
  },
  {
    "tile": {
      "plane": 2,
      "x": 2890,
      "y": 3568
    },
    "comment": "Archer",
    "npcId": 1073
  },
  {
    "tile": {
      "plane": 2,
      "x": 2894,
      "y": 3560
    },
    "comment": "Archer",
    "npcId": 1074
  },
  {
    "tile": {
      "plane": 2,
      "x": 2903,
      "y": 3568
    },
    "comment": "Archer",
    "npcId": 1075
  },
  {
    "tile": {
      "plane": 0,
      "x": 2896,
      "y": 3562
    },
    "comment": "Servant",
    "npcId": 1081
  },
  {
    "tile": {
      "plane": 0,
      "x": 2891,
      "y": 3568
    },
    "comment": "Servant",
    "npcId": 1081
  },
  {
    "tile": {
      "plane": 0,
      "x": 2921,
      "y": 3531
    },
    "comment": "Patrolling Guards",
    "npcId": 15018
  },
  {
    "tile": {
      "plane": 0,
      "x": 2900,
      "y": 3524
    },
    "comment": "Patrolling Guards",
    "npcId": 15018
  },
  {
    "tile": {
      "plane": 0,
      "x": 2920,
      "y": 3532
    },
    "comment": "Patrolling Guards",
    "npcId": 15018
  },
  {
    "tile": {
      "plane": 0,
      "x": 2901,
      "y": 3540
    },
    "comment": "Patrolling Guards",
    "npcId": 15018
  },
  {
    "tile": {
      "plane": 0,
      "x": 2922,
      "y": 3530
    },
    "comment": "Patrolling Guards",
    "npcId": 15018
  },
  {
    "tile": {
      "plane": 0,
      "x": 2923,
      "y": 3549
    },
    "comment": "Patrolling Guards",
    "npcId": 15018
  },
  {
    "tile": {
      "plane": 0,
      "x": 2924,
      "y": 3549
    },
    "comment": "Patrolling Guards",
    "npcId": 15018
  },
  {
    "tile": {
      "plane": 0,
      "x": 2905,
      "y": 3530
    },
    "comment": "Wounded Soldier",
    "npcId": 15023
  },
  {
    "tile": {
      "plane": 0,
      "x": 2904,
      "y": 3533
    },
    "comment": "Wounded Soldier",
    "npcId": 15024
  },
  {
    "tile": {
      "plane": 0,
      "x": 2918,
      "y": 3530
    },
    "comment": "Wounded Soldier",
    "npcId": 15028
  },
  {
    "tile": {
      "plane": 0,
      "x": 2916,
      "y": 3530
    },
    "comment": "Wounded Soldier",
    "npcId": 15029
  },
  {
    "tile": {
      "plane": 0,
      "x": 2907,
      "y": 3542
    },
    "comment": "Wounded Soldier",
    "npcId": 15029
  },
  {
    "tile": {
      "plane": 0,
      "x": 2911,
      "y": 3542
    },
    "comment": "Wounded Soldier",
    "npcId": 15033
  },
  {
    "tile": {
      "plane": 0,
      "x": 2909,
      "y": 3523
    },
    "comment": "Soldier",
    "npcId": 15034
  },
  {
    "tile": {
      "plane": 0,
      "x": 2912,
      "y": 3526
    },
    "comment": "Soldier",
    "npcId": 15034
  },
  {
    "tile": {
      "plane": 0,
      "x": 2910,
      "y": 3522
    },
    "comment": "Soldier",
    "npcId": 15035
  },
  {
    "tile": {
      "plane": 0,
      "x": 2913,
      "y": 3522
    },
    "comment": "Soldier",
    "npcId": 15035
  },
  {
    "tile": {
      "plane": 0,
      "x": 2912,
      "y": 3525
    },
    "comment": "Soldier",
    "npcId": 15035
  },
  {
    "tile": {
      "plane": 0,
      "x": 2933,
      "y": 3544
    },
    "comment": "Captain",
    "npcId": 15272
  },
  {
    "tile": {
      "plane": 0,
      "x": 2940,
      "y": 3682
    },
    "comment": "Egg",
    "npcId": 8075
  },
  {
    "tile": {
      "plane": 0,
      "x": 2912,
      "y": 3749
    },
    "comment": "Knight",
    "npcId": 6202
  },
  {
    "tile": {
      "plane": 0,
      "x": 2913,
      "y": 3750
    },
    "comment": "Knight",
    "npcId": 6202
  },
  {
    "tile": {
      "plane": 0,
      "x": 2928,
      "y": 3441
    },
    "comment": "Druid",
    "npcId": 15115
  },
  {
    "tile": {
      "plane": 0,
      "x": 2888,
      "y": 3445
    },
    "comment": "Druid",
    "npcId": 15116
  },
  {
    "tile": {
      "plane": 0,
      "x": 2927,
      "y": 3432
    },
    "comment": "Druid",
    "npcId": 15116
  },
  {
    "tile": {
      "plane": 0,
      "x": 2936,
      "y": 3440
    },
    "comment": "Druid",
    "npcId": 15116
  },
  {
    "tile": {
      "plane": 0,
      "x": 2888,
      "y": 3428
    },
    "comment": "Druid",
    "npcId": 15117
  },
  {
    "tile": {
      "plane": 0,
      "x": 2910,
      "y": 3416
    },
    "comment": "Druidess",
    "npcId": 15119
  },
  {
    "tile": {
      "plane": 0,
      "x": 2927,
      "y": 3435
    },
    "comment": "Druidess",
    "npcId": 15119
  },
  {
    "tile": {
      "plane": 0,
      "x": 2893,
      "y": 3423
    },
    "comment": "Druidess",
    "npcId": 15120
  },
  {
    "tile": {
      "plane": 0,
      "x": 2920,
      "y": 3468
    },
    "comment": "Chicken",
    "npcId": 41
  },
  {
    "tile": {
      "plane": 0,
      "x": 2922,
      "y": 3469
    },
    "comment": "Chicken",
    "npcId": 41
  },
  {
    "tile": {
      "plane": 0,
      "x": 2916,
      "y": 3470
    },
    "comment": "Chicken",
    "npcId": 41
  },
  {
    "tile": {
      "plane": 0,
      "x": 2919,
      "y": 3475
    },
    "comment": "Chicken",
    "npcId": 41
  },
  {
    "tile": {
      "plane": 0,
      "x": 2916,
      "y": 3479
    },
    "comment": "Chicken",
    "npcId": 41
  },
  {
    "tile": {
      "plane": 0,
      "x": 2921,
      "y": 3480
    },
    "comment": "Chicken",
    "npcId": 41
  },
  {
    "tile": {
      "plane": 0,
      "x": 2910,
      "y": 3502
    },
    "comment": "Kaqemeex",
    "npcId": 455
  },
  {
    "tile": {
      "plane": 0,
      "x": 2918,
      "y": 3513
    },
    "comment": "Achietties",
    "npcId": 796
  },
  {
    "tile": {
      "plane": 1,
      "x": 2911,
      "y": 3515
    },
    "comment": "Helemos",
    "npcId": 797
  },
  {
    "tile": {
      "plane": 0,
      "x": 2936,
      "y": 3491
    },
    "comment": "Rabbit",
    "npcId": 1192
  },
  {
    "tile": {
      "plane": 0,
      "x": 2927,
      "y": 3498
    },
    "comment": "Rabbit",
    "npcId": 1192
  },
  {
    "tile": {
      "plane": 0,
      "x": 2937,
      "y": 3501
    },
    "comment": "Rabbit",
    "npcId": 1192
  },
  {
    "tile": {
      "plane": 0,
      "x": 2923,
      "y": 3459
    },
    "comment": "Master Farmer",
    "npcId": 2234
  },
  {
    "tile": {
      "plane": 1,
      "x": 2906,
      "y": 3514
    },
    "comment": "Linza",
    "npcId": 3479
  },
  {
    "tile": {
      "plane": 0,
      "x": 2888,
      "y": 3464
    },
    "comment": "Goblin",
    "npcId": 4482
  },
  {
    "tile": {
      "plane": 0,
      "x": 2912,
      "y": 3480
    },
    "comment": "Man",
    "npcId": 5070
  },
  {
    "tile": {
      "plane": 0,
      "x": 2926,
      "y": 3516
    },
    "comment": "Nurse",
    "npcId": 15017
  },
  {
    "tile": {
      "plane": 0,
      "x": 2899,
      "y": 3510
    },
    "comment": "Patrolling Guards",
    "npcId": 15018
  },
  {
    "tile": {
      "plane": 0,
      "x": 2898,
      "y": 3510
    },
    "comment": "Patrolling Guards",
    "npcId": 15018
  },
  {
    "tile": {
      "plane": 0,
      "x": 2922,
      "y": 3517
    },
    "comment": "Wounded Soldier",
    "npcId": 15022
  },
  {
    "tile": {
      "plane": 0,
      "x": 2930,
      "y": 3516
    },
    "comment": "Wounded Soldier",
    "npcId": 15023
  },
  {
    "tile": {
      "plane": 0,
      "x": 2935,
      "y": 3512
    },
    "comment": "Wounded Soldier",
    "npcId": 15023
  },
  {
    "tile": {
      "plane": 0,
      "x": 2934,
      "y": 3512
    },
    "comment": "Wounded Soldier",
    "npcId": 15024
  },
  {
    "tile": {
      "plane": 0,
      "x": 2922,
      "y": 3506
    },
    "comment": "Wounded Soldier",
    "npcId": 15026
  },
  {
    "tile": {
      "plane": 0,
      "x": 2925,
      "y": 3512
    },
    "comment": "Wounded Soldier",
    "npcId": 15028
  },
  {
    "tile": {
      "plane": 0,
      "x": 2933,
      "y": 3512
    },
    "comment": "Wounded Soldier",
    "npcId": 15028
  },
  {
    "tile": {
      "plane": 0,
      "x": 2932,
      "y": 3516
    },
    "comment": "Wounded Soldier",
    "npcId": 15029
  },
  {
    "tile": {
      "plane": 0,
      "x": 2920,
      "y": 3506
    },
    "comment": "Wounded Soldier",
    "npcId": 15030
  },
  {
    "tile": {
      "plane": 0,
      "x": 2926,
      "y": 3512
    },
    "comment": "Wounded Soldier",
    "npcId": 15030
  },
  {
    "tile": {
      "plane": 0,
      "x": 2928,
      "y": 3516
    },
    "comment": "Wounded Soldier",
    "npcId": 15031
  },
  {
    "tile": {
      "plane": 0,
      "x": 2926,
      "y": 3463
    },
    "comment": "Man",
    "npcId": 15036
  },
  {
    "tile": {
      "plane": 0,
      "x": 2920,
      "y": 3466
    },
    "comment": "Man",
    "npcId": 15037
  },
  {
    "tile": {
      "plane": 0,
      "x": 2923,
      "y": 3463
    },
    "comment": "Man",
    "npcId": 15038
  },
  {
    "tile": {
      "plane": 0,
      "x": 2921,
      "y": 3458
    },
    "comment": "Woman",
    "npcId": 15039
  },
  {
    "tile": {
      "plane": 0,
      "x": 2924,
      "y": 3464
    },
    "comment": "Woman",
    "npcId": 15040
  },
  {
    "tile": {
      "plane": 0,
      "x": 2928,
      "y": 3499
    },
    "comment": "Priest",
    "npcId": 15048
  },
  {
    "tile": {
      "plane": 0,
      "x": 2926,
      "y": 3502
    },
    "comment": "Priest",
    "npcId": 15048
  },
  {
    "tile": {
      "plane": 0,
      "x": 2924,
      "y": 3500
    },
    "comment": "Priest",
    "npcId": 15049
  },
  {
    "tile": {
      "plane": 0,
      "x": 2928,
      "y": 3500
    },
    "comment": "Priest",
    "npcId": 15049
  },
  {
    "tile": {
      "plane": 0,
      "x": 2928,
      "y": 3502
    },
    "comment": "Priest",
    "npcId": 15049
  },
  {
    "tile": {
      "plane": 0,
      "x": 2905,
      "y": 3495
    },
    "comment": "Druid",
    "npcId": 15115
  },
  {
    "tile": {
      "plane": 0,
      "x": 2904,
      "y": 3499
    },
    "comment": "Druid",
    "npcId": 15116
  },
  {
    "tile": {
      "plane": 0,
      "x": 2913,
      "y": 3502
    },
    "comment": "Druid",
    "npcId": 15117
  },
  {
    "tile": {
      "plane": 0,
      "x": 2904,
      "y": 3504
    },
    "comment": "Druidess",
    "npcId": 15118
  },
  {
    "tile": {
      "plane": 0,
      "x": 2910,
      "y": 3500
    },
    "comment": "Druidess",
    "npcId": 15119
  },
  {
    "tile": {
      "plane": 0,
      "x": 2911,
      "y": 3480
    },
    "comment": "Man",
    "npcId": 5070
  }
]